<?xml version="1.0" encoding="utf-8"?>
<!-- Generator: Adobe Illustrator 19.0.1, SVG Export Plug-In . SVG Version: 6.00 Build 0)  -->
<svg version="1.1" id="Шар_1" xmlns="http://www.w3.org/2000/svg" xmlns:xlink="http://www.w3.org/1999/xlink" x="0px" y="0px"
	 viewBox="-275.4 398.9 39.4 44.1" style="enable-background:new -275.4 398.9 39.4 44.1;" xml:space="preserve">
<polygon points="-236,416.9 -260.1,416.9 -247.6,404.5 -253.3,398.9 -275.4,420.9 -253.3,442.9 -247.6,437.3 -260.1,424.9 
	-236,424.9 "/>
</svg>
