<svg width="150" height="94" viewBox="0 0 150 94" fill="none" xmlns="http://www.w3.org/2000/svg">
<g clip-path="url(#clip0)">
<path d="M8.04437 89.5084V91.1039L123.706 93.3775L123.906 82.9668L8.04437 89.5084Z" fill="#D0E09B"/>
<path d="M148.119 48.384L140.395 48.8228L139.795 62.8234L6.24341 57.2391L8.04437 89.5084L123.906 82.9668L150 81.4909L148.119 48.384Z" fill="#669F42"/>
<path d="M0.760405 38.5715L0 56.9997L6.24333 57.239L139.795 62.8233L140.395 48.8227L140.595 44.3952L0.760405 38.5715Z" fill="#95C13D"/>
<path d="M45.3042 0H34.0982L25.9739 13.4023L17.4894 0H6.24337L19.5305 20.4226L5.60303 41.6429H16.849L25.6537 27.6822L34.6185 41.6429H45.8645L31.9371 20.4226L45.3042 0Z" fill="#E21E26"/>
<path d="M67.0359 36.2581C66.8358 36.1783 66.6356 36.1783 66.4355 36.2581C66.2755 36.3378 66.1554 36.4176 66.0753 36.5772C65.9953 36.7367 65.9953 36.8963 65.9953 37.0957L66.2354 37.7339L67.5561 37.2154C67.4761 37.0159 67.4361 36.8564 67.3961 36.7766C67.356 36.4974 67.236 36.3378 67.0359 36.2581Z" fill="#E21E26"/>
<path d="M52.8282 4.38755L54.0688 3.23081L52.3479 3.19092L52.8282 4.38755Z" fill="#E21E26"/>
<path d="M67.0757 27.4827L56.5901 0H46.3846L63.1136 41.6429H70.4375L86.7261 0H77.121L67.0757 27.4827ZM51.3873 5.78374L52.2678 4.94609L51.5874 3.19103H50.3868L50.1066 2.47305L54.9092 2.59271L55.1493 3.23092L51.7075 6.5815L51.3873 5.78374ZM53.0282 9.8523C52.8681 9.65286 52.708 9.41353 52.5879 9.13432C52.3478 8.49611 52.3478 7.93768 52.5879 7.37925C52.8281 6.82082 53.2683 6.46183 53.9087 6.18262C54.509 5.94329 55.1093 5.94329 55.6296 6.14273C56.1899 6.34217 56.5501 6.78094 56.8302 7.45903C57.0303 7.97757 57.0703 8.45623 56.9103 8.8551L56.2299 8.73544C56.3099 8.37645 56.2699 8.05735 56.1498 7.69836C55.9898 7.29948 55.7496 7.02026 55.3894 6.9006C55.0292 6.74105 54.629 6.78094 54.1888 6.94049C53.7486 7.10004 53.4684 7.37925 53.3083 7.73824C53.1482 8.09723 53.1482 8.49611 53.3083 8.93488C53.4684 9.29387 53.6685 9.57309 54.0287 9.77252L53.5885 10.2512C53.3884 10.2113 53.2283 10.0517 53.0282 9.8523ZM54.1888 13.1231C53.9487 12.4849 53.9487 11.9265 54.1888 11.368C54.4289 10.8096 54.8692 10.4506 55.5095 10.1714C56.1098 9.93208 56.7101 9.93208 57.2304 10.1315C57.7907 10.331 58.1509 10.7697 58.4311 11.4478C58.6312 11.9664 58.6712 12.445 58.5111 12.8439L57.8307 12.7242C57.9108 12.3652 57.8708 12.0461 57.7507 11.6871C57.5906 11.2883 57.3505 11.009 56.9903 10.8894C56.6301 10.7298 56.2299 10.7697 55.7897 10.9293C55.3494 11.0888 55.0693 11.368 54.9092 11.727C54.7491 12.086 54.7491 12.4849 54.9092 12.9237C55.0292 13.2827 55.2694 13.5619 55.6296 13.7613L55.1893 14.24C54.9892 14.1602 54.8291 14.0405 54.629 13.8012C54.4289 13.6416 54.2688 13.4023 54.1888 13.1231ZM56.1899 18.0692L57.0703 17.2316L56.39 15.4765L55.1893 15.4366L54.9092 14.7186L59.7117 14.8383L59.9519 15.4765L56.51 18.8271L56.1899 18.0692ZM58.1109 23.0153L61.0725 21.8585L58.7512 21.2602L58.7112 21.1406L60.0319 19.1462L57.0703 20.3029L56.7902 19.5849L60.9124 17.9894L61.1925 18.7074L59.8318 20.8613L62.2731 21.4597L62.5533 22.1378L58.4311 23.7333L58.1109 23.0153ZM59.2715 26.0867C59.2315 26.0069 59.1514 25.7676 59.0314 25.4485C58.9914 25.3687 58.9914 25.3288 58.9513 25.249C58.9113 25.1692 58.9113 25.1294 58.9113 25.0895C58.9113 25.0496 58.8713 25.0097 58.8713 25.0097L62.9935 23.4142L63.914 25.8074L63.2336 26.0867L62.5933 24.4114L61.6728 24.7704C61.7528 24.9299 61.8329 25.0895 61.9129 25.2889C62.073 25.7277 62.113 26.0867 61.9529 26.4457C61.8329 26.7648 61.5527 27.0041 61.1925 27.1636C60.7523 27.3232 60.3921 27.3232 60.0319 27.1237C59.7518 26.9243 59.4716 26.6052 59.2715 26.0867ZM61.3126 31.1923L64.7544 29.876L64.2742 28.6794L63.4738 28.9187C62.9935 29.0384 62.5533 29.158 62.1931 29.1979C61.8329 29.2378 61.5127 29.2777 61.3126 29.2777C61.0725 29.2777 60.8724 29.2378 60.7123 29.1181C60.5522 29.0384 60.4321 28.9187 60.3521 28.799C60.272 28.6794 60.232 28.5198 60.152 28.3603L60.8724 28.0811C60.8724 28.1608 60.9124 28.2406 60.9524 28.2805C60.9924 28.3204 61.0725 28.3603 61.1925 28.4002C61.3126 28.44 61.4727 28.44 61.6728 28.44C62.153 28.4002 62.8734 28.2805 63.7939 27.9614L64.6344 27.6822L65.6349 30.2749L61.5127 31.8704L61.3126 31.1923ZM63.0335 35.6199L62.073 33.1867L66.1952 31.5912L67.1157 33.9446L66.4353 34.2238L65.795 32.5884L64.7544 32.9873L65.3147 34.4631L64.6344 34.7423L64.0741 33.2665L62.9935 33.6654L63.6739 35.3805L63.0335 35.6199ZM64.4343 39.2497L64.1541 38.5317L65.5549 37.9732L65.3147 37.3749L63.5138 37.0159L63.1936 36.2182L65.1546 36.6569C65.1947 36.3777 65.2747 36.1783 65.3948 35.939C65.5549 35.7395 65.755 35.58 65.9951 35.4603C66.3953 35.3008 66.7955 35.3008 67.1557 35.5002C67.5559 35.6597 67.8361 36.0586 68.0362 36.6171C68.0362 36.6171 68.1162 36.8165 68.2363 37.1356C68.3163 37.2951 68.3564 37.4946 68.4364 37.6541L64.4343 39.2497Z" fill="#E21E26"/>
<path d="M61.2728 26.1265C61.3529 25.967 61.3128 25.7675 61.2328 25.5282C61.1928 25.3687 61.1127 25.2091 60.9927 25.0496L59.832 25.4883C59.8721 25.6878 59.9521 25.8473 59.9921 25.967C60.1922 26.4855 60.4724 26.6451 60.9126 26.4855C61.1127 26.4057 61.2328 26.2861 61.2728 26.1265Z" fill="#E21E26"/>
<path d="M57.6306 16.713L58.8713 15.5164H57.1504L57.6306 16.713Z" fill="#E21E26"/>
<path d="M98.3324 0H88.7673V41.6429H98.3324V0Z" fill="#E21E26"/>
<path d="M115.342 0H105.776V41.6429H115.342V0Z" fill="#E21E26"/>
<path d="M132.391 0H122.826V41.6429H132.391V0Z" fill="#E21E26"/>
<path d="M15.4482 63.8207C14.3276 63.8207 13.3271 63.5814 12.3666 63.1027C11.406 62.6241 10.7257 62.0258 10.2454 61.3078L11.326 60.0314C11.8063 60.6297 12.4466 61.1084 13.207 61.4674C13.9674 61.8263 14.6878 62.0258 15.3682 62.0258C16.4487 62.0258 17.3292 61.7466 18.0096 61.228C18.6899 60.6696 19.0101 59.9516 19.0101 58.9943C19.0101 58.1965 18.73 57.5982 18.2097 57.1196C17.6494 56.6409 16.889 56.4016 15.9285 56.4016H14.0074V54.6066H15.7283C16.4087 54.6066 17.0491 54.3673 17.5693 53.8488C18.0896 53.3302 18.3698 52.692 18.3698 51.9341C18.3698 51.1364 18.0896 50.4982 17.5693 50.0195C17.0491 49.5808 16.3287 49.3414 15.4882 49.3414C14.0875 49.3414 12.8868 49.9398 11.8863 51.0965L10.7657 49.8201C11.326 49.1021 12.0064 48.5437 12.8868 48.1049C13.7673 47.706 14.6878 47.5066 15.6883 47.5066C17.0891 47.5066 18.2097 47.8656 19.0501 48.6235C19.8906 49.3813 20.2908 50.4184 20.2908 51.6948C20.2908 52.4527 20.0907 53.1308 19.6905 53.8089C19.2902 54.4471 18.73 54.9656 18.0096 55.3246V55.4044C18.9301 55.6038 19.6504 56.0027 20.1707 56.6808C20.691 57.3589 20.9311 58.1567 20.9311 59.1539C20.9311 60.5898 20.4108 61.7067 19.3303 62.5443C18.2097 63.382 16.929 63.8207 15.4482 63.8207Z" fill="white"/>
<path d="M25.1735 66.5329H23.3725V61.7863H25.0934C25.5737 61.1481 26.0939 59.9116 26.6542 58.1166C27.2145 56.2818 27.5747 53.8885 27.7348 50.9368L27.8949 47.7856H37.2199V61.8262H39.381V66.5728H37.5801V63.6211H25.1735V66.5329ZM29.6959 49.5407L29.4958 52.3728C29.3357 54.7261 29.0155 56.7604 28.5352 58.5155C28.055 60.1908 27.6148 61.2677 27.2145 61.7464H35.2988V49.5407H29.6959Z" fill="white"/>
<path d="M41.7424 55.6437C41.7424 53.3302 42.5028 51.4156 44.0236 49.86C45.5444 48.3043 47.5054 47.5066 49.8267 47.5066C52.1479 47.5066 54.109 48.2645 55.6298 49.7802C57.1906 51.2959 57.951 53.2504 57.951 55.6437C57.951 57.9572 57.1906 59.9117 55.6298 61.4673C54.0689 63.023 52.1479 63.7808 49.8267 63.7808C47.5054 63.7808 45.5844 63.023 44.0236 61.5072C42.5028 59.9915 41.7424 58.037 41.7424 55.6437ZM43.7835 55.6437C43.7835 57.4387 44.3838 58.9145 45.5444 60.151C46.705 61.3477 48.1458 61.946 49.8667 61.946C51.6677 61.946 53.1084 61.3477 54.229 60.151C55.3496 58.9544 55.9499 57.4387 55.9499 55.6437C55.9499 53.8488 55.3496 52.333 54.189 51.0965C53.0284 49.8999 51.5876 49.3015 49.8667 49.3015C48.1058 49.3015 46.665 49.8999 45.5444 51.0965C44.3838 52.2931 43.7835 53.8089 43.7835 55.6437Z" fill="white"/>
<path d="M63.9941 57.4784V63.5813H62.033V47.7458C62.6734 47.7458 63.3537 47.7458 64.0341 47.7059C64.7545 47.7059 65.4749 47.666 66.1552 47.666C68.2363 47.666 69.7571 48.1447 70.6376 49.0621C71.5581 49.9795 72.0384 51.1363 72.0384 52.5722C72.0384 53.9284 71.5581 55.125 70.5175 56.1222C69.557 57.0795 68.1563 57.5582 66.2753 57.5582C65.3948 57.5981 64.5944 57.5582 63.9941 57.4784ZM66.3953 49.5009C66.1152 49.5009 65.3148 49.5009 63.9941 49.5407V55.6436C64.9546 55.7234 65.715 55.7633 66.3153 55.7633C67.4759 55.7633 68.3964 55.484 69.0768 54.9256C69.7571 54.3672 70.0773 53.5694 70.0773 52.5722C70.0773 51.575 69.7571 50.8172 69.1568 50.2986C68.5165 49.7801 67.596 49.5009 66.3953 49.5009Z" fill="white"/>
<path d="M74.9201 55.6437C74.9201 53.3302 75.6805 51.4156 77.2013 49.86C78.7221 48.3043 80.6832 47.5066 83.0044 47.5066C85.3256 47.5066 87.2867 48.2645 88.8075 49.7802C90.3683 51.2959 91.1287 53.2504 91.1287 55.6437C91.1287 57.9572 90.3683 59.9117 88.8075 61.4673C87.2467 63.023 85.3256 63.7808 83.0044 63.7808C80.6832 63.7808 78.7621 63.023 77.2013 61.5072C75.6805 59.9915 74.9201 58.037 74.9201 55.6437ZM76.9612 55.6437C76.9612 57.4387 77.5615 58.9145 78.7221 60.151C79.8827 61.3477 81.3235 61.946 83.0444 61.946C84.8454 61.946 86.2862 61.3477 87.4067 60.151C88.5273 58.9544 89.1277 57.4387 89.1277 55.6437C89.1277 53.8488 88.5273 52.333 87.3667 51.0965C86.2061 49.8999 84.7653 49.3015 83.0444 49.3015C81.2835 49.3015 79.8427 49.8999 78.7221 51.0965C77.5615 52.2931 76.9612 53.8089 76.9612 55.6437Z" fill="white"/>
<path d="M95.2508 63.5414V47.7458C97.372 47.666 98.8127 47.666 99.6131 47.666C101.334 47.666 102.615 48.025 103.455 48.7031C104.296 49.3812 104.736 50.3385 104.736 51.575C104.736 52.4924 104.496 53.2503 104.015 53.8885C103.535 54.4868 102.855 54.9655 102.014 55.2447V55.2846C103.055 55.4441 103.855 55.843 104.416 56.5211C105.016 57.1593 105.296 57.997 105.296 59.0739C105.296 60.5897 104.776 61.7464 103.735 62.5043C102.695 63.302 101.294 63.661 99.4931 63.661C97.7722 63.661 96.3314 63.6211 95.2508 63.5414ZM99.5731 49.461C99.1329 49.461 98.3325 49.5009 97.1718 49.5407V54.6464H99.6932C100.574 54.6464 101.334 54.4071 101.894 53.9284C102.455 53.4497 102.775 52.8115 102.775 51.9739C102.775 50.3385 101.694 49.461 99.5731 49.461ZM99.7332 56.3616H97.1718V61.7464C97.7722 61.8262 98.6126 61.8262 99.6131 61.8262C100.814 61.8262 101.734 61.5869 102.375 61.1082C103.015 60.6296 103.335 59.9116 103.335 58.9543C103.335 58.1166 103.015 57.4784 102.415 57.0397C101.774 56.561 100.894 56.3616 99.7332 56.3616Z" fill="white"/>
<path d="M109.739 63.5811H107.777L114.621 47.626H116.302L123.146 63.5811H121.065L119.023 58.7946H111.78L109.739 63.5811ZM118.263 56.9597L115.382 50.1788L112.54 56.9597H118.263Z" fill="white"/>
<path d="M135.792 63.5812H133.871V57.6778H130.87L126.747 63.5812H124.586L128.989 57.3587C128.068 56.9997 127.308 56.4014 126.707 55.6435C126.147 54.8856 125.827 53.9682 125.827 52.9311C125.827 51.4154 126.347 50.139 127.388 49.1817C128.428 48.1845 129.989 47.7058 132.03 47.7058C132.11 47.7058 132.711 47.7058 133.951 47.7457C134.552 47.7457 135.152 47.7856 135.752 47.7856V63.5812H135.792ZM130.63 55.8828H133.831V49.5407C132.791 49.5008 132.07 49.4609 131.67 49.4609C130.469 49.4609 129.549 49.78 128.869 50.3783C128.188 50.9766 127.868 51.7744 127.868 52.7716C127.868 53.5693 128.148 54.2873 128.668 54.8457C129.269 55.4441 129.909 55.7632 130.63 55.8828Z" fill="white"/>
<path d="M13.6471 85.9185H11.7261V70.083H13.6871L19.6503 78.2201L25.3734 70.083H27.2143V85.9185H25.2933V73.1145L19.6503 80.9724H19.3702L13.6471 73.1943V85.9185Z" fill="white"/>
<path d="M31.2966 77.9806C31.2966 75.6671 32.057 73.7525 33.5778 72.1969C35.0986 70.6413 37.0596 69.8435 39.3809 69.8435C41.7021 69.8435 43.6632 70.6014 45.184 72.1171C46.7448 73.6329 47.5052 75.5874 47.5052 77.9806C47.5052 80.2941 46.7448 82.2486 45.184 83.8043C43.6231 85.3599 41.7021 86.1178 39.3809 86.1178C37.0596 86.1178 35.1386 85.3599 33.5778 83.8441C32.057 82.3284 31.2966 80.3739 31.2966 77.9806ZM33.3377 77.9806C33.3377 79.7756 33.938 81.2514 35.0986 82.5278C36.2592 83.7245 37.7 84.3228 39.4209 84.3228C41.2219 84.3228 42.6626 83.7245 43.7832 82.5278C44.9038 81.3312 45.5041 79.8155 45.5041 77.9806C45.5041 76.1857 44.9038 74.6699 43.7432 73.4334C42.5826 72.2368 41.1418 71.6385 39.4209 71.6385C37.66 71.6385 36.2192 72.2368 35.0986 73.4334C33.898 74.6301 33.3377 76.1458 33.3377 77.9806Z" fill="white"/>
<path d="M62.6734 82.9268L63.4338 84.3628C62.9135 84.9212 62.1931 85.3201 61.2726 85.6392C60.3521 85.9583 59.3916 86.1178 58.3911 86.1178C56.0298 86.1178 54.0688 85.36 52.548 83.8841C51.0672 82.3684 50.3068 80.4139 50.3068 77.9408C50.3068 75.5874 51.0271 73.6329 52.4279 72.1172C53.8286 70.5616 55.7897 69.8037 58.231 69.8037C60.2321 69.8037 61.8729 70.3223 63.0736 71.3593L62.1931 72.7953C61.1525 71.9975 59.8318 71.5987 58.271 71.5987C56.5501 71.5987 55.1093 72.197 54.0287 73.3537C52.9081 74.5105 52.3479 76.0262 52.3479 77.9408C52.3479 79.8156 52.9082 81.3712 54.0688 82.5279C55.2294 83.6847 56.7502 84.283 58.5512 84.283C60.152 84.3229 61.5127 83.8841 62.6734 82.9268Z" fill="white"/>
<path d="M68.9968 85.9185H67.0757V70.083H68.9968V85.9185ZM76.3607 70.083H78.6819L71.5982 77.542L79.0421 85.9584H76.5608L69.357 77.7016L76.3607 70.083Z" fill="white"/>
<path d="M82.4839 85.8786V70.0829C84.605 70.0032 86.0458 70.0032 86.8462 70.0032C88.5671 70.0032 89.8478 70.3622 90.6883 71.0403C91.5287 71.7184 91.9689 72.6757 91.9689 73.9122C91.9689 74.8296 91.7288 75.5875 91.2486 76.2257C90.7683 76.8639 90.0879 77.3027 89.2475 77.5819V77.6218C90.288 77.7813 91.0885 78.1802 91.6488 78.8583C92.2491 79.4965 92.5292 80.3341 92.5292 81.4111C92.5292 82.9269 92.009 84.0437 90.9684 84.8415C89.9279 85.5993 88.5271 85.9982 86.7261 85.9982C85.0052 85.9982 83.5645 85.9583 82.4839 85.8786ZM86.8062 71.7981C86.366 71.7981 85.5655 71.838 84.4049 71.8779V76.9836H86.9663C87.8467 76.9836 88.6072 76.7442 89.1675 76.2656C89.7278 75.7869 90.0479 75.1487 90.0479 74.3111C90.0079 72.6757 88.9273 71.7981 86.8062 71.7981ZM86.9663 78.6987H84.4049V84.0836C85.0052 84.1634 85.8457 84.1634 86.8462 84.1634C88.0469 84.1634 88.9673 83.924 89.6077 83.4454C90.248 82.9667 90.5682 82.2488 90.5682 81.2914C90.5682 80.4538 90.248 79.8156 89.6477 79.3768C89.0074 78.9381 88.1269 78.6987 86.9663 78.6987Z" fill="white"/>
<path d="M96.9718 85.9185H95.0107L101.854 69.9634H103.535L110.379 85.9185H108.298L106.257 81.132H99.0128L96.9718 85.9185ZM105.496 79.2971L102.615 72.5162L99.7733 79.2971H105.496Z" fill="white"/>
</g>
<defs>
<clipPath id="clip0">
<rect width="150" height="93.3775" fill="white"/>
</clipPath>
</defs>
</svg>
