<svg width="39" height="50" viewBox="0 0 39 50" fill="none" xmlns="http://www.w3.org/2000/svg">
<path d="M0.00828764 0.334961L8.10677 49.0221L19.1311 33.4567L38.1233 31.692L0.00828764 0.334961Z" fill="#E21E26"/>
</svg>
